Applications Graphics Acceleration Info:
Uptime: 7109780 Realtime: 7393811

** Graphics info for pid 1800 [com.transsion.XOSLauncher] **

Stats since: 67360323234ns
Total frames rendered: 8556
Janky frames: 381 (4.45%)
90th percentile: 12ms
95th percentile: 15ms
99th percentile: 34ms
Number Missed Vsync: 58
Number High input latency: 0
Number Slow UI thread: 210
Number Slow bitmap uploads: 47
Number Slow issue draw commands: 164

Caches:
Current memory usage / total memory usage (bytes):
  TextureCache          7424112 / 41943040
  LayerCache           13926400 / 16777216 (numLayers = 2)
    Layer size 1088x192; isTextureLayer()=0; texid=4108 fbo=5; refs=1
    Layer size 1088x1728; isTextureLayer()=0; texid=4039 fbo=0; refs=1
    Layer size 1088x1472; isTextureLayer()=0; texid=4117 fbo=0; refs=1
  Layers total   14761984 (numLayers = 3)
  RenderBufferCache           0 /  2097152
  GradientCache           16384 /   524288
  PathCache              328205 /  4194304
  TessellationCache         744 /  1048576
  TextDropShadowCache    814832 /  2097152
  PatchCache               2240 /   131072
  FontRenderer 0 A8     1179648 /  1179648
  FontRenderer 0 RGBA         0 /        0
  FontRenderer 0 total  1179648 /  1179648
Other:
  FboCache                    6 /       16
Total memory usage:
  24528149 bytes, 23.39 MB

Profile data in ms:

	com.transsion.XOSLauncher/com.android.launcher3.Launcher/android.view.ViewRootImpl@c1d8c49 (visibility=0)
Stats since: 67360323234ns
Total frames rendered: 8556
Janky frames: 381 (4.45%)
90th percentile: 12ms
95th percentile: 15ms
99th percentile: 34ms
Number Missed Vsync: 58
Number High input latency: 0
Number Slow UI thread: 210
Number Slow bitmap uploads: 47
Number Slow issue draw commands: 164

View hierarchy:

  com.transsion.XOSLauncher/com.android.launcher3.Launcher/android.view.ViewRootImpl@c1d8c49
  215 views, 330.87 kB of display lists


Total ViewRootImpl: 1
Total Views:        215
Total DisplayList:  330.87 kB


** Graphics info for pid 1833 [com.google.android.gms.persistent] **
Profile data in ms:

View hierarchy:


Total ViewRootImpl: 0
Total Views:        0
Total DisplayList:  0.00 kB


** Graphics info for pid 15147 [com.android.chrome] **

Stats since: 2586317120998ns
Total frames rendered: 13
Janky frames: 3 (23.08%)
90th percentile: 48ms
95th percentile: 125ms
99th percentile: 125ms
Number Missed Vsync: 2
Number High input latency: 0
Number Slow UI thread: 2
Number Slow bitmap uploads: 0
Number Slow issue draw commands: 0

Caches:
Current memory usage / total memory usage (bytes):
  TextureCache            20808 / 41943040
  LayerCache                  0 / 16777216 (numLayers = 0)
  Layers total          0 (numLayers = 0)
  RenderBufferCache           0 /  2097152
  GradientCache               0 /   524288
  PathCache                   0 /  4194304
  TessellationCache           0 /  1048576
  TextDropShadowCache         0 /  2097152
  PatchCache                576 /   131072
  FontRenderer 0 A8     1179648 /  1179648
  FontRenderer 0 RGBA         0 /        0
  FontRenderer 0 total  1179648 /  1179648
Other:
  FboCache                    1 /       16
Total memory usage:
  1201032 bytes, 1.15 MB

Profile data in ms:

	com.android.chrome/org.chromium.chrome.browser.ChromeTabbedActivity/android.view.ViewRootImpl@e25cf8 (visibility=8)
Stats since: 2586317120998ns
Total frames rendered: 13
Janky frames: 3 (23.08%)
90th percentile: 48ms
95th percentile: 125ms
99th percentile: 125ms
Number Missed Vsync: 2
Number High input latency: 0
Number Slow UI thread: 2
Number Slow bitmap uploads: 0
Number Slow issue draw commands: 0

View hierarchy:

  com.android.chrome/org.chromium.chrome.browser.ChromeTabbedActivity/android.view.ViewRootImpl@e25cf8
  60 views, 47.81 kB of display lists


Total ViewRootImpl: 1
Total Views:        60
Total DisplayList:  47.81 kB


** Graphics info for pid 1916 [com.google.android.gms] **
Profile data in ms:

View hierarchy:


Total ViewRootImpl: 0
Total Views:        0
Total DisplayList:  0.00 kB


** Graphics info for pid 31530 [com.android.chrome:sandboxed_process1] **
Profile data in ms:

View hierarchy:


Total ViewRootImpl: 0
Total Views:        0
Total DisplayList:  0.00 kB


** Graphics info for pid 24737 [com.android.dialer] **

Stats since: 1075141320292ns
Total frames rendered: 2655
Janky frames: 400 (15.07%)
90th percentile: 22ms
95th percentile: 34ms
99th percentile: 97ms
Number Missed Vsync: 133
Number High input latency: 8
Number Slow UI thread: 287
Number Slow bitmap uploads: 15
Number Slow issue draw commands: 91

Caches:
Current memory usage / total memory usage (bytes):
  TextureCache          1067640 / 41943040
  LayerCache                  0 / 16777216 (numLayers = 0)
  Layers total          0 (numLayers = 0)
  RenderBufferCache           0 /  2097152
  GradientCache               0 /   524288
  PathCache                   0 /  4194304
  TessellationCache           0 /  1048576
  TextDropShadowCache         0 /  2097152
  PatchCache               1152 /   131072
  FontRenderer 0 A8     1179648 /  1179648
  FontRenderer 0 RGBA         0 /        0
  FontRenderer 0 total  1179648 /  1179648
Other:
  FboCache                    4 /       16
Total memory usage:
  2248440 bytes, 2.14 MB

Profile data in ms:

	com.android.dialer/com.android.dialer.DialtactsActivity/android.view.ViewRootImpl@86485b (visibility=8)
Stats since: 1075141320292ns
Total frames rendered: 2655
Janky frames: 400 (15.07%)
90th percentile: 22ms
95th percentile: 34ms
99th percentile: 97ms
Number Missed Vsync: 133
Number High input latency: 8
Number Slow UI thread: 287
Number Slow bitmap uploads: 15
Number Slow issue draw commands: 91

View hierarchy:

  com.android.dialer/com.android.dialer.DialtactsActivity/android.view.ViewRootImpl@86485b
  428 views, 467.24 kB of display lists


Total ViewRootImpl: 1
Total Views:        428
Total DisplayList:  467.24 kB


** Graphics info for pid 30637 [com.gbwhatsapp] **

Stats since: 6696780512935ns
Total frames rendered: 191
Janky frames: 79 (41.36%)
90th percentile: 31ms
95th percentile: 53ms
99th percentile: 89ms
Number Missed Vsync: 16
Number High input latency: 0
Number Slow UI thread: 30
Number Slow bitmap uploads: 3
Number Slow issue draw commands: 46

Caches:
Current memory usage / total memory usage (bytes):
  TextureCache           559800 / 41943040
  LayerCache                  0 / 16777216 (numLayers = 0)
  Layers total          0 (numLayers = 0)
  RenderBufferCache           0 /  2097152
  GradientCache           32768 /   524288
  PathCache                   0 /  4194304
  TessellationCache           0 /  1048576
  TextDropShadowCache         0 /  2097152
  PatchCache                  0 /   131072
  FontRenderer 0 A8     1179648 /  1179648
  FontRenderer 0 RGBA         0 /        0
  FontRenderer 0 total  1179648 /  1179648
Other:
  FboCache                    0 /       16
Total memory usage:
  1772216 bytes, 1.69 MB

Profile data in ms:

	com.gbwhatsapp/com.gbwhatsapp.OverlayAlert/android.view.ViewRootImpl@c5786a8 (visibility=8)
Stats since: 6696780512935ns
Total frames rendered: 191
Janky frames: 79 (41.36%)
90th percentile: 31ms
95th percentile: 53ms
99th percentile: 89ms
Number Missed Vsync: 16
Number High input latency: 0
Number Slow UI thread: 30
Number Slow bitmap uploads: 3
Number Slow issue draw commands: 46

View hierarchy:

  com.gbwhatsapp/com.gbwhatsapp.OverlayAlert/android.view.ViewRootImpl@c5786a8
  14 views, 11.16 kB of display lists


Total ViewRootImpl: 1
Total Views:        14
Total DisplayList:  11.16 kB


** Graphics info for pid 6777 [com.UCMobile.intl] **

Stats since: 808055325507ns
Total frames rendered: 1640
Janky frames: 379 (23.11%)
90th percentile: 29ms
95th percentile: 40ms
99th percentile: 65ms
Number Missed Vsync: 74
Number High input latency: 2
Number Slow UI thread: 141
Number Slow bitmap uploads: 4
Number Slow issue draw commands: 258

Caches:
Current memory usage / total memory usage (bytes):
  TextureCache           162000 / 41943040
  LayerCache                  0 / 16777216 (numLayers = 0)
  Layers total          0 (numLayers = 0)
  RenderBufferCache           0 /  2097152
  GradientCache               0 /   524288
  PathCache                   0 /  4194304
  TessellationCache           0 /  1048576
  TextDropShadowCache         0 /  2097152
  PatchCache              16192 /   131072
  FontRenderer 0 A8     1179648 /  1179648
  FontRenderer 0 RGBA         0 /        0
  FontRenderer 0 total  1179648 /  1179648
Other:
  FboCache                   16 /       16
Total memory usage:
  1357840 bytes, 1.29 MB

Profile data in ms:

	com.UCMobile.intl/com.uc.browser.InnerUCMobile/android.view.ViewRootImpl@8585049 (visibility=8)
Stats since: 808055325507ns
Total frames rendered: 1640
Janky frames: 379 (23.11%)
90th percentile: 29ms
95th percentile: 40ms
99th percentile: 65ms
Number Missed Vsync: 74
Number High input latency: 2
Number Slow UI thread: 141
Number Slow bitmap uploads: 4
Number Slow issue draw commands: 258

View hierarchy:

  com.UCMobile.intl/com.uc.browser.InnerUCMobile/android.view.ViewRootImpl@8585049
  432 views, 353.00 kB of display lists


Total ViewRootImpl: 1
Total Views:        432
Total DisplayList:  353.00 kB


** Graphics info for pid 2085 [com.google.android.googlequicksearchbox:search] **

Stats since: 388569345174ns
Total frames rendered: 4
Janky frames: 3 (75.00%)
90th percentile: 93ms
95th percentile: 93ms
99th percentile: 93ms
Number Missed Vsync: 3
Number High input latency: 0
Number Slow UI thread: 2
Number Slow bitmap uploads: 0
Number Slow issue draw commands: 1

Caches:
Current memory usage / total memory usage (bytes):
  TextureCache                0 / 41943040
  LayerCache                  0 / 16777216 (numLayers = 0)
  Layers total          0 (numLayers = 0)
  RenderBufferCache           0 /  2097152
  GradientCache               0 /   524288
  PathCache                   0 /  4194304
  TessellationCache           0 /  1048576
  TextDropShadowCache         0 /  2097152
  PatchCache                  0 /   131072
  FontRenderer 0 A8     1179648 /  1179648
  FontRenderer 0 RGBA         0 /        0
  FontRenderer 0 total  1179648 /  1179648
Other:
  FboCache                    0 /       16
Total memory usage:
  1179648 bytes, 1.12 MB

Profile data in ms:

	VoiceInteractionSession/android.view.ViewRootImpl@175dd90 (visibility=8)
Stats since: 388569345174ns
Total frames rendered: 4
Janky frames: 3 (75.00%)
90th percentile: 93ms
95th percentile: 93ms
99th percentile: 93ms
Number Missed Vsync: 3
Number High input latency: 0
Number Slow UI thread: 2
Number Slow bitmap uploads: 0
Number Slow issue draw commands: 1

View hierarchy:

  VoiceInteractionSession/android.view.ViewRootImpl@175dd90
  64 views, 67.00 kB of display lists


Total ViewRootImpl: 1
Total Views:        64
Total DisplayList:  67.00 kB


** Graphics info for pid 1615 [com.android.inputmethod.latin] **

Stats since: 824254504431ns
Total frames rendered: 828
Janky frames: 87 (10.51%)
90th percentile: 18ms
95th percentile: 27ms
99th percentile: 42ms
Number Missed Vsync: 39
Number High input latency: 18
Number Slow UI thread: 55
Number Slow bitmap uploads: 7
Number Slow issue draw commands: 7

Caches:
Current memory usage / total memory usage (bytes):
  TextureCache           645792 / 41943040
  LayerCache                  0 / 16777216 (numLayers = 0)
  Layers total          0 (numLayers = 0)
  RenderBufferCache           0 /  2097152
  GradientCache               0 /   524288
  PathCache                   0 /  4194304
  TessellationCache           0 /  1048576
  TextDropShadowCache         0 /  2097152
  PatchCache               2496 /   131072
  FontRenderer 0 A8     1179648 /  1179648
  FontRenderer 0 RGBA         0 /        0
  FontRenderer 0 total  1179648 /  1179648
Other:
  FboCache                    2 /       16
Total memory usage:
  1827936 bytes, 1.74 MB

Profile data in ms:

	InputMethod/android.view.ViewRootImpl@74ca383 (visibility=8)
Stats since: 824254504431ns
Total frames rendered: 828
Janky frames: 87 (10.51%)
90th percentile: 18ms
95th percentile: 27ms
99th percentile: 42ms
Number Missed Vsync: 39
Number High input latency: 18
Number Slow UI thread: 55
Number Slow bitmap uploads: 7
Number Slow issue draw commands: 7

View hierarchy:

  InputMethod/android.view.ViewRootImpl@74ca383
  48 views, 50.25 kB of display lists


Total ViewRootImpl: 1
Total Views:        48
Total DisplayList:  50.25 kB


** Graphics info for pid 12517 [com.android.settings] **

Stats since: 1592911275939ns
Total frames rendered: 331
Janky frames: 27 (8.16%)
90th percentile: 13ms
95th percentile: 24ms
99th percentile: 85ms
Number Missed Vsync: 14
Number High input latency: 0
Number Slow UI thread: 21
Number Slow bitmap uploads: 1
Number Slow issue draw commands: 5

Caches:
Current memory usage / total memory usage (bytes):
  TextureCache            55296 / 41943040
  LayerCache                  0 / 16777216 (numLayers = 0)
  Layers total          0 (numLayers = 0)
  RenderBufferCache           0 /  2097152
  GradientCache               0 /   524288
  PathCache                   0 /  4194304
  TessellationCache           0 /  1048576
  TextDropShadowCache         0 /  2097152
  PatchCache                  0 /   131072
  FontRenderer 0 A8     1179648 /  1179648
  FontRenderer 0 RGBA         0 /        0
  FontRenderer 0 total  1179648 /  1179648
Other:
  FboCache                    0 /       16
Total memory usage:
  1234944 bytes, 1.18 MB

Profile data in ms:

	com.android.settings/com.android.settings.Settings/android.view.ViewRootImpl@3cf6182 (visibility=8)
Stats since: 1592911275939ns
Total frames rendered: 331
Janky frames: 27 (8.16%)
90th percentile: 13ms
95th percentile: 24ms
99th percentile: 85ms
Number Missed Vsync: 14
Number High input latency: 0
Number Slow UI thread: 21
Number Slow bitmap uploads: 1
Number Slow issue draw commands: 5

	com.android.settings/com.android.settings.SubSettings/android.view.ViewRootImpl@8d2acab (visibility=8)
Stats since: 1592911275939ns
Total frames rendered: 331
Janky frames: 27 (8.16%)
90th percentile: 13ms
95th percentile: 24ms
99th percentile: 85ms
Number Missed Vsync: 14
Number High input latency: 0
Number Slow UI thread: 21
Number Slow bitmap uploads: 1
Number Slow issue draw commands: 5

View hierarchy:

  com.android.settings/com.android.settings.Settings/android.view.ViewRootImpl@3cf6182
  264 views, 276.38 kB of display lists

  com.android.settings/com.android.settings.SubSettings/android.view.ViewRootImpl@8d2acab
  113 views, 118.30 kB of display lists


Total ViewRootImpl: 2
Total Views:        377
Total DisplayList:  394.67 kB


** Graphics info for pid 22252 [com.fiverr.fiverr] **

Stats since: 3775196455146ns
Total frames rendered: 470
Janky frames: 42 (8.94%)
90th percentile: 16ms
95th percentile: 24ms
99th percentile: 105ms
Number Missed Vsync: 13
Number High input latency: 2
Number Slow UI thread: 28
Number Slow bitmap uploads: 7
Number Slow issue draw commands: 14

Caches:
Current memory usage / total memory usage (bytes):
  TextureCache          2111352 / 41943040
  LayerCache                  0 / 16777216 (numLayers = 0)
  Layers total          0 (numLayers = 0)
  RenderBufferCache           0 /  2097152
  GradientCache               0 /   524288
  PathCache                   0 /  4194304
  TessellationCache           0 /  1048576
  TextDropShadowCache         0 /  2097152
  PatchCache                320 /   131072
  FontRenderer 0 A8     1179648 /  1179648
  FontRenderer 0 RGBA         0 /        0
  FontRenderer 0 total  1179648 /  1179648
Other:
  FboCache                    5 /       16
Total memory usage:
  3291320 bytes, 3.14 MB

Profile data in ms:

	com.fiverr.fiverr/com.fiverr.fiverr.ActivityAndFragment.HomePage.FVRHomePageActivity/android.view.ViewRootImpl@fc8c82c (visibility=8)
Stats since: 3775196455146ns
Total frames rendered: 470
Janky frames: 42 (8.94%)
90th percentile: 16ms
95th percentile: 24ms
99th percentile: 105ms
Number Missed Vsync: 13
Number High input latency: 2
Number Slow UI thread: 28
Number Slow bitmap uploads: 7
Number Slow issue draw commands: 14

View hierarchy:

  com.fiverr.fiverr/com.fiverr.fiverr.ActivityAndFragment.HomePage.FVRHomePageActivity/android.view.ViewRootImpl@fc8c82c
  218 views, 244.29 kB of display lists


Total ViewRootImpl: 1
Total Views:        218
Total DisplayList:  244.29 kB


** Graphics info for pid 6807 [com.UCMobile.intl:resident] **
Profile data in ms:

View hierarchy:


Total ViewRootImpl: 0
Total Views:        0
Total DisplayList:  0.00 kB


** Graphics info for pid 18414 [com.instagram.android] **

Stats since: 1358817413694ns
Total frames rendered: 5501
Janky frames: 416 (7.56%)
90th percentile: 15ms
95th percentile: 23ms
99th percentile: 69ms
Number Missed Vsync: 116
Number High input latency: 1
Number Slow UI thread: 215
Number Slow bitmap uploads: 21
Number Slow issue draw commands: 163

Caches:
Current memory usage / total memory usage (bytes):
  TextureCache          1554404 / 41943040
  LayerCache                  0 / 16777216 (numLayers = 0)
  Layers total          0 (numLayers = 0)
  RenderBufferCache           0 /  2097152
  GradientCache           65536 /   524288
  PathCache                   0 /  4194304
  TessellationCache           0 /  1048576
  TextDropShadowCache     32960 /  2097152
  PatchCache                192 /   131072
  FontRenderer 0 A8     1179648 /  1179648
  FontRenderer 0 RGBA   4718592 /  4718592
  FontRenderer 0 total  5898240 /  5898240
Other:
  FboCache                    3 /       16
Total memory usage:
  7551332 bytes, 7.20 MB

Profile data in ms:

	com.instagram.android/com.instagram.android.activity.MainTabActivity/android.view.ViewRootImpl@e915c1e (visibility=8)
Stats since: 1358817413694ns
Total frames rendered: 5501
Janky frames: 416 (7.56%)
90th percentile: 15ms
95th percentile: 23ms
99th percentile: 69ms
Number Missed Vsync: 116
Number High input latency: 1
Number Slow UI thread: 215
Number Slow bitmap uploads: 21
Number Slow issue draw commands: 163

	AtchDlg:com.instagram.android/com.instagram.mainactivity.ActivityInTab/android.view.ViewRootImpl@797e7b8 (visibility=8)
Stats since: 1358817413694ns
Total frames rendered: 5501
Janky frames: 416 (7.56%)
90th percentile: 15ms
95th percentile: 23ms
99th percentile: 69ms
Number Missed Vsync: 116
Number High input latency: 1
Number Slow UI thread: 215
Number Slow bitmap uploads: 21
Number Slow issue draw commands: 163

	com.instagram.android/com.instagram.modal.ModalActivity/android.view.ViewRootImpl@f48cdd8 (visibility=8)
Stats since: 1358817413694ns
Total frames rendered: 5501
Janky frames: 416 (7.56%)
90th percentile: 15ms
95th percentile: 23ms
99th percentile: 69ms
Number Missed Vsync: 116
Number High input latency: 1
Number Slow UI thread: 215
Number Slow bitmap uploads: 21
Number Slow issue draw commands: 163

View hierarchy:

  com.instagram.android/com.instagram.android.activity.MainTabActivity/android.view.ViewRootImpl@e915c1e
  385 views, 306.80 kB of display lists

  AtchDlg:com.instagram.android/com.instagram.mainactivity.ActivityInTab/android.view.ViewRootImpl@797e7b8
  1 views, 0.80 kB of display lists

  com.instagram.android/com.instagram.modal.ModalActivity/android.view.ViewRootImpl@f48cdd8
  150 views, 119.71 kB of display lists


Total ViewRootImpl: 3
Total Views:        536
Total DisplayList:  427.30 kB


** Graphics info for pid 23662 [com.dropbox.android] **

Stats since: 4159880313092ns
Total frames rendered: 2619
Janky frames: 246 (9.39%)
90th percentile: 17ms
95th percentile: 21ms
99th percentile: 34ms
Number Missed Vsync: 5
Number High input latency: 0
Number Slow UI thread: 50
Number Slow bitmap uploads: 5
Number Slow issue draw commands: 56

Caches:
Current memory usage / total memory usage (bytes):
  TextureCache            15376 / 41943040
  LayerCache                  0 / 16777216 (numLayers = 0)
  Layers total          0 (numLayers = 0)
  RenderBufferCache           0 /  2097152
  GradientCache               0 /   524288
  PathCache                   0 /  4194304
  TessellationCache           0 /  1048576
  TextDropShadowCache         0 /  2097152
  PatchCache               1536 /   131072
  FontRenderer 0 A8     1179648 /  1179648
  FontRenderer 0 RGBA         0 /        0
  FontRenderer 0 total  1179648 /  1179648
Other:
  FboCache                    1 /       16
Total memory usage:
  1196560 bytes, 1.14 MB

Profile data in ms:

	com.dropbox.android/com.dropbox.android.activity.LoginOrNewAcctActivity/android.view.ViewRootImpl@2853af6 (visibility=8)
Stats since: 4159880313092ns
Total frames rendered: 2619
Janky frames: 246 (9.39%)
90th percentile: 17ms
95th percentile: 21ms
99th percentile: 34ms
Number Missed Vsync: 5
Number High input latency: 0
Number Slow UI thread: 50
Number Slow bitmap uploads: 5
Number Slow issue draw commands: 56

View hierarchy:

  com.dropbox.android/com.dropbox.android.activity.LoginOrNewAcctActivity/android.view.ViewRootImpl@2853af6
  33 views, 26.30 kB of display lists


Total ViewRootImpl: 1
Total Views:        33
Total DisplayList:  26.30 kB


** Graphics info for pid 19497 [com.instagram.android:igplayer] **
Profile data in ms:

View hierarchy:


Total ViewRootImpl: 0
Total Views:        0
Total DisplayList:  0.00 kB


** Graphics info for pid 18642 [com.android.chrome:sandboxed_process0] **
Profile data in ms:

View hierarchy:


Total ViewRootImpl: 0
Total Views:        0
Total DisplayList:  0.00 kB


** Graphics info for pid 18680 [com.android.chrome:privileged_process0] **
Profile data in ms:

View hierarchy:


Total ViewRootImpl: 0
Total Views:        0
Total DisplayList:  0.00 kB


** Graphics info for pid 15454 [com.android.gallery3d] **

Stats since: 1919728940881ns
Total frames rendered: 468
Janky frames: 61 (13.03%)
90th percentile: 22ms
95th percentile: 30ms
99th percentile: 73ms
Number Missed Vsync: 23
Number High input latency: 2
Number Slow UI thread: 41
Number Slow bitmap uploads: 0
Number Slow issue draw commands: 15

Caches:
Current memory usage / total memory usage (bytes):
  TextureCache           232704 / 41943040
  LayerCache                  0 / 16777216 (numLayers = 0)
  Layers total          0 (numLayers = 0)
  RenderBufferCache           0 /  2097152
  GradientCache               0 /   524288
  PathCache                   0 /  4194304
  TessellationCache           0 /  1048576
  TextDropShadowCache         0 /  2097152
  PatchCache                192 /   131072
  FontRenderer 0 A8     1179648 /  1179648
  FontRenderer 0 RGBA         0 /        0
  FontRenderer 0 total  1179648 /  1179648
Other:
  FboCache                    3 /       16
Total memory usage:
  1412544 bytes, 1.35 MB

Profile data in ms:

	com.android.gallery3d/com.android.gallery3d.app.GalleryActivity/android.view.ViewRootImpl@1962e92 (visibility=8)
Stats since: 1919728940881ns
Total frames rendered: 468
Janky frames: 61 (13.03%)
90th percentile: 22ms
95th percentile: 30ms
99th percentile: 73ms
Number Missed Vsync: 23
Number High input latency: 2
Number Slow UI thread: 41
Number Slow bitmap uploads: 0
Number Slow issue draw commands: 15

View hierarchy:

  com.android.gallery3d/com.android.gallery3d.app.GalleryActivity/android.view.ViewRootImpl@1962e92
  35 views, 40.95 kB of display lists


Total ViewRootImpl: 1
Total Views:        35
Total DisplayList:  40.95 kB


** Graphics info for pid 8658 [com.google.android.gm] **

Stats since: 1283439995997ns
Total frames rendered: 1218
Janky frames: 176 (14.45%)
90th percentile: 21ms
95th percentile: 38ms
99th percentile: 81ms
Number Missed Vsync: 65
Number High input latency: 3
Number Slow UI thread: 134
Number Slow bitmap uploads: 3
Number Slow issue draw commands: 40

Caches:
Current memory usage / total memory usage (bytes):
  TextureCache          1619728 / 41943040
  LayerCache                  0 / 16777216 (numLayers = 0)
  Layers total          0 (numLayers = 0)
  RenderBufferCache           0 /  2097152
  GradientCache           40960 /   524288
  PathCache                   0 /  4194304
  TessellationCache           0 /  1048576
  TextDropShadowCache         0 /  2097152
  PatchCache                  0 /   131072
  FontRenderer 0 A8     1179648 /  1179648
  FontRenderer 0 RGBA   4718592 /  4718592
  FontRenderer 0 total  5898240 /  5898240
Other:
  FboCache                    3 /       16
Total memory usage:
  7558928 bytes, 7.21 MB

Profile data in ms:

	com.google.android.gm/com.google.android.gm.ui.MailActivityGmail/android.view.ViewRootImpl@d36ff1e (visibility=8)
Stats since: 1283439995997ns
Total frames rendered: 1218
Janky frames: 176 (14.45%)
90th percentile: 21ms
95th percentile: 38ms
99th percentile: 81ms
Number Missed Vsync: 65
Number High input latency: 3
Number Slow UI thread: 134
Number Slow bitmap uploads: 3
Number Slow issue draw commands: 40

	com.google.android.gm/com.google.android.gm.ComposeActivityGmailExternal/android.view.ViewRootImpl@c44392c (visibility=8)
Stats since: 1283439995997ns
Total frames rendered: 1218
Janky frames: 176 (14.45%)
90th percentile: 21ms
95th percentile: 38ms
99th percentile: 81ms
Number Missed Vsync: 65
Number High input latency: 3
Number Slow UI thread: 134
Number Slow bitmap uploads: 3
Number Slow issue draw commands: 40

View hierarchy:

  com.google.android.gm/com.google.android.gm.ui.MailActivityGmail/android.view.ViewRootImpl@d36ff1e
  451 views, 509.70 kB of display lists

  com.google.android.gm/com.google.android.gm.ComposeActivityGmailExternal/android.view.ViewRootImpl@c44392c
  131 views, 137.40 kB of display lists


Total ViewRootImpl: 2
Total Views:        582
Total DisplayList:  647.10 kB


** Graphics info for pid 6849 [com.UCMobile.intl:channel] **
Profile data in ms:

View hierarchy:


Total ViewRootImpl: 0
Total Views:        0
Total DisplayList:  0.00 kB


** Graphics info for pid 6152 [com.transsion.carlcare] **

Stats since: 388603355790ns
Total frames rendered: 2
Janky frames: 1 (50.00%)
90th percentile: 81ms
95th percentile: 81ms
99th percentile: 81ms
Number Missed Vsync: 0
Number High input latency: 0
Number Slow UI thread: 1
Number Slow bitmap uploads: 1
Number Slow issue draw commands: 1

Caches:
Current memory usage / total memory usage (bytes):
  TextureCache           476676 / 41943040
  LayerCache                  0 / 16777216 (numLayers = 0)
  Layers total          0 (numLayers = 0)
  RenderBufferCache           0 /  2097152
  GradientCache               0 /   524288
  PathCache                   0 /  4194304
  TessellationCache           0 /  1048576
  TextDropShadowCache         0 /  2097152
  PatchCache                  0 /   131072
  FontRenderer 0 A8     1179648 /  1179648
  FontRenderer 0 RGBA         0 /        0
  FontRenderer 0 total  1179648 /  1179648
Other:
  FboCache                    0 /       16
Total memory usage:
  1656324 bytes, 1.58 MB

Profile data in ms:

	com.transsion.carlcare/com.transsion.carlcare.MainActivity/android.view.ViewRootImpl@81b27a9 (visibility=8)
Stats since: 388603355790ns
Total frames rendered: 2
Janky frames: 1 (50.00%)
90th percentile: 81ms
95th percentile: 81ms
99th percentile: 81ms
Number Missed Vsync: 0
Number High input latency: 0
Number Slow UI thread: 1
Number Slow bitmap uploads: 1
Number Slow issue draw commands: 1

View hierarchy:

  com.transsion.carlcare/com.transsion.carlcare.MainActivity/android.view.ViewRootImpl@81b27a9
  29 views, 30.36 kB of display lists


Total ViewRootImpl: 1
Total Views:        29
Total DisplayList:  30.36 kB


** Graphics info for pid 7195 [com.UCMobile.intl:MediaPlayerService] **
Profile data in ms:

View hierarchy:


Total ViewRootImpl: 0
Total Views:        0
Total DisplayList:  0.00 kB


** Graphics info for pid 6877 [com.UCMobile.intl:collapsed] **
Profile data in ms:

View hierarchy:


Total ViewRootImpl: 0
Total Views:        0
Total DisplayList:  0.00 kB


** Graphics info for pid 8403 [android.process.acore] **
Profile data in ms:

View hierarchy:


Total ViewRootImpl: 0
Total Views:        0
Total DisplayList:  0.00 kB


** Graphics info for pid 8738 [com.android.mms] **
Profile data in ms:

View hierarchy:


Total ViewRootImpl: 0
Total Views:        0
Total DisplayList:  0.00 kB


** Graphics info for pid 32380 [com.google.android.talk] **
Profile data in ms:

View hierarchy:


Total ViewRootImpl: 0
Total Views:        0
Total DisplayList:  0.00 kB


** Graphics info for pid 1890 [com.google.process.gapps] **
Profile data in ms:

View hierarchy:


Total ViewRootImpl: 0
Total Views:        0
Total DisplayList:  0.00 kB


** Graphics info for pid 31603 [com.mediatek.filemanager] **

Stats since: 6884441953792ns
Total frames rendered: 3601
Janky frames: 265 (7.36%)
90th percentile: 13ms
95th percentile: 23ms
99th percentile: 46ms
Number Missed Vsync: 39
Number High input latency: 0
Number Slow UI thread: 151
Number Slow bitmap uploads: 2
Number Slow issue draw commands: 98

Caches:
Current memory usage / total memory usage (bytes):
  TextureCache           283520 / 41943040
  LayerCache                  0 / 16777216 (numLayers = 0)
  Layers total          0 (numLayers = 0)
  RenderBufferCache           0 /  2097152
  GradientCache               0 /   524288
  PathCache                   0 /  4194304
  TessellationCache           0 /  1048576
  TextDropShadowCache         0 /  2097152
  PatchCache                448 /   131072
  FontRenderer 0 A8     1179648 /  1179648
  FontRenderer 0 RGBA         0 /        0
  FontRenderer 0 total  1179648 /  1179648
Other:
  FboCache                    1 /       16
Total memory usage:
  1463616 bytes, 1.40 MB

Profile data in ms:

View hierarchy:


Total ViewRootImpl: 0
Total Views:        0
Total DisplayList:  0.00 kB


** Graphics info for pid 25456 [com.google.android.apps.photos] **
Profile data in ms:

View hierarchy:


Total ViewRootImpl: 0
Total Views:        0
Total DisplayList:  0.00 kB


** Graphics info for pid 11702 [com.UCMobile.intl:RemoteBackgroundProcess] **
Profile data in ms:

View hierarchy:


Total ViewRootImpl: 0
Total Views:        0
Total DisplayList:  0.00 kB


** Graphics info for pid 1581 [com.mephone.fonts] **
Profile data in ms:

View hierarchy:


Total ViewRootImpl: 0
Total Views:        0
Total DisplayList:  0.00 kB


** Graphics info for pid 12102 [android.process.media] **
Profile data in ms:

View hierarchy:


Total ViewRootImpl: 0
Total Views:        0
Total DisplayList:  0.00 kB


** Graphics info for pid 10982 [com.facebook.katana] **
Profile data in ms:

View hierarchy:


Total ViewRootImpl: 0
Total Views:        0
Total DisplayList:  0.00 kB


** Graphics info for pid 9464 [com.facebook.appmanager] **
Profile data in ms:

View hierarchy:


Total ViewRootImpl: 0
Total Views:        0
Total DisplayList:  0.00 kB


** Graphics info for pid 17536 [com.android.deskclock] **
Profile data in ms:

View hierarchy:


Total ViewRootImpl: 0
Total Views:        0
Total DisplayList:  0.00 kB


** Graphics info for pid 31365 [photo.video.instasaveapp] **

Stats since: 6874878814792ns
Total frames rendered: 5
Janky frames: 4 (80.00%)
90th percentile: 129ms
95th percentile: 129ms
99th percentile: 129ms
Number Missed Vsync: 3
Number High input latency: 0
Number Slow UI thread: 2
Number Slow bitmap uploads: 1
Number Slow issue draw commands: 3

Caches:
Current memory usage / total memory usage (bytes):
  TextureCache           954540 / 41943040
  LayerCache                  0 / 16777216 (numLayers = 0)
  Layers total          0 (numLayers = 0)
  RenderBufferCache           0 /  2097152
  GradientCache               0 /   524288
  PathCache                   0 /  4194304
  TessellationCache           0 /  1048576
  TextDropShadowCache         0 /  2097152
  PatchCache                832 /   131072
  FontRenderer 0 A8     1179648 /  1179648
  FontRenderer 0 RGBA         0 /        0
  FontRenderer 0 total  1179648 /  1179648
Other:
  FboCache                    0 /       16
Total memory usage:
  2135020 bytes, 2.04 MB

Profile data in ms:

View hierarchy:


Total ViewRootImpl: 0
Total Views:        0
Total DisplayList:  0.00 kB


** Graphics info for pid 24854 [com.android.providers.calllogbackup] **
Profile data in ms:

View hierarchy:


Total ViewRootImpl: 0
Total Views:        0
Total DisplayList:  0.00 kB


** Graphics info for pid 24751 [com.transsion.mobilebutler] **
Profile data in ms:

View hierarchy:


Total ViewRootImpl: 0
Total Views:        0
Total DisplayList:  0.00 kB


** Graphics info for pid 9748 [com.xui.xhide] **
Profile data in ms:

View hierarchy:


Total ViewRootImpl: 0
Total Views:        0
Total DisplayList:  0.00 kB


** Graphics info for pid 18378 [com.instagram.android:mqtt] **
Profile data in ms:

View hierarchy:


Total ViewRootImpl: 0
Total Views:        0
Total DisplayList:  0.00 kB


** Graphics info for pid 2888 [com.facebook.katana:notification] **
Profile data in ms:

View hierarchy:


Total ViewRootImpl: 0
Total Views:        0
Total DisplayList:  0.00 kB


** Graphics info for pid 11210 [com.ttn.hello.flashlight] **

Stats since: 2490879210069ns
Total frames rendered: 289
Janky frames: 54 (18.69%)
90th percentile: 26ms
95th percentile: 48ms
99th percentile: 93ms
Number Missed Vsync: 15
Number High input latency: 0
Number Slow UI thread: 22
Number Slow bitmap uploads: 3
Number Slow issue draw commands: 27

Caches:
Current memory usage / total memory usage (bytes):
  TextureCache                0 / 41943040
  LayerCache                  0 / 16777216 (numLayers = 0)
  Layers total          0 (numLayers = 0)
  RenderBufferCache           0 /  2097152
  GradientCache               0 /   524288
  PathCache                   0 /  4194304
  TessellationCache           0 /  1048576
  TextDropShadowCache         0 /  2097152
  PatchCache                  0 /   131072
  FontRenderer 0 A8           0 /        0
  FontRenderer 0 RGBA         0 /        0
  FontRenderer 0 total        0 /        0
Other:
  FboCache                    0 /       16
Total memory usage:
  0 bytes, 0.00 MB

Profile data in ms:

View hierarchy:


Total ViewRootImpl: 0
Total Views:        0
Total DisplayList:  0.00 kB


** Graphics info for pid 6650 [com.android.dophin] **

Stats since: 2583436900844ns
Total frames rendered: 34
Janky frames: 4 (11.76%)
90th percentile: 32ms
95th percentile: 89ms
99th percentile: 101ms
Number Missed Vsync: 2
Number High input latency: 0
Number Slow UI thread: 3
Number Slow bitmap uploads: 0
Number Slow issue draw commands: 1

Caches:
Current memory usage / total memory usage (bytes):
  TextureCache           342400 / 41943040
  LayerCache                  0 / 16777216 (numLayers = 0)
  Layers total          0 (numLayers = 0)
  RenderBufferCache           0 /  2097152
  GradientCache               0 /   524288
  PathCache                   0 /  4194304
  TessellationCache         744 /  1048576
  TextDropShadowCache         0 /  2097152
  PatchCache                  0 /   131072
  FontRenderer 0 A8     1179648 /  1179648
  FontRenderer 0 RGBA         0 /        0
  FontRenderer 0 total  1179648 /  1179648
Other:
  FboCache                    1 /       16
Total memory usage:
  1522792 bytes, 1.45 MB

Profile data in ms:

View hierarchy:


Total ViewRootImpl: 0
Total Views:        0
Total DisplayList:  0.00 kB


** Graphics info for pid 1191 [com.rlk.powersavemanagement] **
Profile data in ms:

View hierarchy:


Total ViewRootImpl: 0
Total Views:        0
Total DisplayList:  0.00 kB


** Graphics info for pid 7985 [com.UCMobile.intl:bgprocess] **
Profile data in ms:

View hierarchy:


Total ViewRootImpl: 0
Total Views:        0
Total DisplayList:  0.00 kB


** Graphics info for pid 6891 [com.UCMobile.intl:daemon] **
Profile data in ms:

View hierarchy:


Total ViewRootImpl: 0
Total Views:        0
Total DisplayList:  0.00 kB


** Graphics info for pid 1250 [com.infinix.powercenter] **
Profile data in ms:

View hierarchy:


Total ViewRootImpl: 0
Total Views:        0
Total DisplayList:  0.00 kB


** Graphics info for pid 3109 [com.rlk.applock] **
Profile data in ms:

View hierarchy:


Total ViewRootImpl: 0
Total Views:        0
Total DisplayList:  0.00 kB


** Graphics info for pid 1774 [com.mediatek.voicecommand] **
Profile data in ms:

View hierarchy:


Total ViewRootImpl: 0
Total Views:        0
Total DisplayList:  0.00 kB


** Graphics info for pid 1760 [com.mediatek.nlpservice] **
Profile data in ms:

View hierarchy:


Total ViewRootImpl: 0
Total Views:        0
Total DisplayList:  0.00 kB


** Graphics info for pid 1745 [com.mediatek.wfo.impl] **
Profile data in ms:

View hierarchy:


Total ViewRootImpl: 0
Total Views:        0
Total DisplayList:  0.00 kB


** Graphics info for pid 1730 [com.mediatek.camera] **
Profile data in ms:

View hierarchy:


Total ViewRootImpl: 0
Total Views:        0
Total DisplayList:  0.00 kB


** Graphics info for pid 1715 [com.mediatek.hotknot.service] **
Profile data in ms:

View hierarchy:


Total ViewRootImpl: 0
Total Views:        0
Total DisplayList:  0.00 kB


** Graphics info for pid 1699 [com.mediatek.ims] **
Profile data in ms:

View hierarchy:


Total ViewRootImpl: 0
Total Views:        0
Total DisplayList:  0.00 kB


** Graphics info for pid 1686 [com.mediatek.gba] **
Profile data in ms:

View hierarchy:


Total ViewRootImpl: 0
Total Views:        0
Total DisplayList:  0.00 kB


** Graphics info for pid 1675 [com.android.phone] **

Stats since: 5287987597236ns
Total frames rendered: 171
Janky frames: 22 (12.87%)
90th percentile: 22ms
95th percentile: 42ms
99th percentile: 93ms
Number Missed Vsync: 6
Number High input latency: 0
Number Slow UI thread: 18
Number Slow bitmap uploads: 4
Number Slow issue draw commands: 7

Caches:
Current memory usage / total memory usage (bytes):
  TextureCache                0 / 41943040
  LayerCache                  0 / 16777216 (numLayers = 0)
  Layers total          0 (numLayers = 0)
  RenderBufferCache           0 /  2097152
  GradientCache               0 /   524288
  PathCache                   0 /  4194304
  TessellationCache         744 /  1048576
  TextDropShadowCache         0 /  2097152
  PatchCache                  0 /   131072
  FontRenderer 0 A8     1179648 /  1179648
  FontRenderer 0 RGBA         0 /        0
  FontRenderer 0 total  1179648 /  1179648
Other:
  FboCache                    0 /       16
Total memory usage:
  1180392 bytes, 1.13 MB

Profile data in ms:

View hierarchy:


Total ViewRootImpl: 0
Total Views:        0
Total DisplayList:  0.00 kB


** Graphics info for pid 1598 [com.google.android.googlequicksearchbox:interactor] **
Profile data in ms:

View hierarchy:


Total ViewRootImpl: 0
Total Views:        0
Total DisplayList:  0.00 kB


** Graphics info for pid 1545 [com.transsion.mgzkeyguard] **
Profile data in ms:

View hierarchy:


Total ViewRootImpl: 0
Total Views:        0
Total DisplayList:  0.00 kB


** Graphics info for pid 1153 [com.android.systemui] **

Stats since: 62351117080ns
Total frames rendered: 15096
Janky frames: 4228 (28.01%)
90th percentile: 36ms
95th percentile: 46ms
99th percentile: 81ms
Number Missed Vsync: 515
Number High input latency: 33
Number Slow UI thread: 3559
Number Slow bitmap uploads: 152
Number Slow issue draw commands: 611

Caches:
Current memory usage / total memory usage (bytes):
  TextureCache          1328320 / 41943040
  LayerCache                  0 / 16777216 (numLayers = 0)
  Layers total          0 (numLayers = 0)
  RenderBufferCache           0 /  2097152
  GradientCache           16384 /   524288
  PathCache                   0 /  4194304
  TessellationCache      124800 /  1048576
  TextDropShadowCache   1510208 /  2097152
  PatchCache                128 /   131072
  FontRenderer 0 A8     1179648 /  1179648
  FontRenderer 0 RGBA   4718592 /  4718592
  FontRenderer 0 total  5898240 /  5898240
Other:
  FboCache                    8 /       16
Total memory usage:
  8878080 bytes, 8.47 MB

Profile data in ms:

	StatusBar/android.view.ViewRootImpl@97c1622 (visibility=0)
Stats since: 62351117080ns
Total frames rendered: 15096
Janky frames: 4228 (28.01%)
90th percentile: 36ms
95th percentile: 46ms
99th percentile: 81ms
Number Missed Vsync: 515
Number High input latency: 33
Number Slow UI thread: 3559
Number Slow bitmap uploads: 152
Number Slow issue draw commands: 611

	NavigationBar/android.view.ViewRootImpl@bd3565d (visibility=0)
Stats since: 62351117080ns
Total frames rendered: 15096
Janky frames: 4228 (28.01%)
90th percentile: 36ms
95th percentile: 46ms
99th percentile: 81ms
Number Missed Vsync: 515
Number High input latency: 33
Number Slow UI thread: 3559
Number Slow bitmap uploads: 152
Number Slow issue draw commands: 611

	Heads Up/android.view.ViewRootImpl@373fb59 (visibility=8)
Stats since: 62351117080ns
Total frames rendered: 15096
Janky frames: 4228 (28.01%)
90th percentile: 36ms
95th percentile: 46ms
99th percentile: 81ms
Number Missed Vsync: 515
Number High input latency: 33
Number Slow UI thread: 3559
Number Slow bitmap uploads: 152
Number Slow issue draw commands: 611

	AssistPreviewPanel/android.view.ViewRootImpl@3cd2ae9 (visibility=8)
Stats since: 62351117080ns
Total frames rendered: 15096
Janky frames: 4228 (28.01%)
90th percentile: 36ms
95th percentile: 46ms
99th percentile: 81ms
Number Missed Vsync: 515
Number High input latency: 33
Number Slow UI thread: 3559
Number Slow bitmap uploads: 152
Number Slow issue draw commands: 611

View hierarchy:

  StatusBar/android.view.ViewRootImpl@97c1622
  717 views, 856.57 kB of display lists

  NavigationBar/android.view.ViewRootImpl@bd3565d
  41 views, 45.83 kB of display lists

  Heads Up/android.view.ViewRootImpl@373fb59
  81 views, 84.80 kB of display lists

  AssistPreviewPanel/android.view.ViewRootImpl@3cd2ae9
  5 views, 5.23 kB of display lists


Total ViewRootImpl: 4
Total Views:        844
Total DisplayList:  992.43 kB


** Graphics info for pid 946 [system] **
Profile data in ms:

	KeyguardScrim/android.view.ViewRootImpl@d0d4b60 (visibility=8)
View hierarchy:

  KeyguardScrim/android.view.ViewRootImpl@d0d4b60
  1 views, 1.05 kB of display lists


Total ViewRootImpl: 1
Total Views:        1
Total DisplayList:  1.05 kB

